…
## Explore Data

``` r
attendance <- read_csv("https://raw.githubusercontent.com/rfordatascience/tidytuesday/master/data/2020/2020-02-04/attendance.csv")
standings <- read_csv("https://raw.githubusercontent.com/rfordatascience/tidytuesday/master/data/2020/2020-02-04/standings.csv")

attendance_joined <- attendance %>%
  left_join(standings,
    by = c("year", "team_name", "team")
  )

attendance_joined
```

    ## # A tibble: 10,846 × 20
    ##    team    team_n…¹  year  total   home   away  week weekl…²  wins  loss point…³
    ##    <chr>   <chr>    <dbl>  <dbl>  <dbl>  <dbl> <dbl>   <dbl> <dbl> <dbl>   <dbl>
    ##  1 Arizona Cardina…  2000 893926 387475 506451     1   77434     3    13     210
    ##  2 Arizona Cardina…  2000 893926 387475 506451     2   66009     3    13     210
    ##  3 Arizona Cardina…  2000 893926 387475 506451     3      NA     3    13     210
    ##  4 Arizona Cardina…  2000 893926 387475 506451     4   71801     3    13     210
    ##  5 Arizona Cardina…  2000 893926 387475 506451     5   66985     3    13     210
    ##  6 Arizona Cardina…  2000 893926 387475 506451     6   44296     3    13     210
    ##  7 Arizona Cardina…  2000 893926 387475 506451     7   38293     3    13     210
    ##  8 Arizona Cardina…  2000 893926 387475 506451     8   62981     3    13     210
    ##  9 Arizona Cardina…  2000 893926 387475 506451     9   35286     3    13     210
    ## 10 Arizona Cardina…  2000 893926 387475 506451    10   52244     3    13     210
    ## # … with 10,836 more rows, 9 more variables: points_against <dbl>,
    ## #   points_differential <dbl>, margin_of_victory <dbl>,
    ## #   strength_of_schedule <dbl>, simple_rating <dbl>, offensive_ranking <dbl>,
    ## #   defensive_ranking <dbl>, playoffs <chr>, sb_winner <chr>, and abbreviated
    ## #   variable names ¹​team_name, ²​weekly_attendance, ³​points_for
…
``` r
attendance_joined %>%
  distinct(team_name, year, margin_of_victory, playoffs)
```

    ## # A tibble: 638 × 4
    ##    team_name  year margin_of_victory playoffs   
    ##    <chr>     <dbl>             <dbl> <chr>      
    ##  1 Cardinals  2000             -14.6 No Playoffs
    ##  2 Falcons    2000             -10.1 No Playoffs
    ##  3 Ravens     2000              10.5 Playoffs   
    ##  4 Bills      2000              -2.2 No Playoffs
    ##  5 Panthers   2000               0   No Playoffs
    ##  6 Bears      2000              -8.7 No Playoffs
    ##  7 Bengals    2000             -10.9 No Playoffs
    ##  8 Browns     2000             -16.1 No Playoffs
    ##  9 Cowboys    2000              -4.2 No Playoffs
    ## 10 Broncos    2000               7.3 Playoffs   
    ## # … with 628 more rows
…
``` r
attendance_df <- attendance_joined %>%
  filter(!is.na(weekly_attendance)) %>%
  select(
    weekly_attendance, team_name, week,
    margin_of_victory, strength_of_schedule, playoffs
  )

attendance_df
```

    ## # A tibble: 10,208 × 6
    ##    weekly_attendance team_name  week margin_of_victory strength_of_sch…¹ playo…²
    ##                <dbl> <chr>     <dbl>             <dbl>             <dbl> <chr>  
    ##  1             77434 Cardinals     1             -14.6              -0.7 No Pla…
    ##  2             66009 Cardinals     2             -14.6              -0.7 No Pla…
    ##  3             71801 Cardinals     4             -14.6              -0.7 No Pla…
    ##  4             66985 Cardinals     5             -14.6              -0.7 No Pla…
    ##  5             44296 Cardinals     6             -14.6              -0.7 No Pla…
    ##  6             38293 Cardinals     7             -14.6              -0.7 No Pla…
    ##  7             62981 Cardinals     8             -14.6              -0.7 No Pla…
    ##  8             35286 Cardinals     9             -14.6              -0.7 No Pla…
    ##  9             52244 Cardinals    10             -14.6              -0.7 No Pla…
    ## 10             64223 Cardinals    11             -14.6              -0.7 No Pla…
    ## # … with 10,198 more rows, and abbreviated variable names
    ## #   ¹​strength_of_schedule, ²​playoffs
…
    ## Linear Regression Model Specification (regression)
    ## 
    ## Computational engine: lm

``` r
# fitting a model
lm_fit <- lm_spec %>%
  fit(weekly_attendance ~ ., data = nfl_train)

lm_fit %>%
  tidy() %>%
  arrange(-estimate)
```

    ## # A tibble: 36 × 5
    ##    term              estimate std.error statistic  p.value
    ##    <chr>                <dbl>     <dbl>     <dbl>    <dbl>
    ##  1 (Intercept)         68915.      572.    121.   0       
    ##  2 team_nameCowboys     7146.      763.      9.37 9.25e-21
    ##  3 team_nameGiants      6296.      757.      8.31 1.08e-16
    ##  4 team_nameRedskins    5902.      757.      7.79 7.39e-15
    ##  5 team_nameJets        4609.      759.      6.08 1.29e- 9
    ##  6 team_nameBroncos     2947.      764.      3.86 1.15e- 4
    ##  7 team_nameChiefs      2152.      751.      2.86 4.18e- 3
    ##  8 team_namePanthers    2040.      756.      2.70 6.94e- 3
    ##  9 team_nameEagles      1644.      766.      2.15 3.19e- 2
    ## 10 team_namePackers     1459.      764.      1.91 5.61e- 2
    ## # … with 26 more rows
…
